{
  "devToolsPort": 19002,
  "expoServerPort": 19000,
  "packagerPort": 19001,
  "packagerPid": 41400,
  "expoServerNgrokUrl": "https://t8-kua.obisi7.myitf.exp.direct",
  "packagerNgrokUrl": "https://packager.t8-kua.obisi7.myitf.exp.direct",
  "ngrokPid": 41412,
  "webpackServerPort": null
}